<?xml version="1.0" standalone="no"?>
<!DOCTYPE svg PUBLIC "-//W3C//DTD SVG 20010904//EN"
 "http://www.w3.org/TR/2001/REC-SVG-20010904/DTD/svg10.dtd">
<svg version="1.0" xmlns="http://www.w3.org/2000/svg"
 width="952.000000pt" height="952.000000pt" viewBox="0 0 952.000000 952.000000"
 preserveAspectRatio="xMidYMid meet">
<metadata>
Created by potrace 1.14, written by Peter Selinger 2001-2017
</metadata>
<g transform="translate(0.000000,952.000000) scale(0.100000,-0.100000)"
fill="#000000" stroke="none">
<path d="M4400 9221 c-51 -20 -100 -58 -100 -78 0 -7 -4 -13 -9 -13 -16 0 -40
-123 -37 -195 3 -80 35 -163 81 -210 59 -58 180 -78 256 -41 49 24 63 36 92
83 50 79 63 210 31 316 -14 48 -69 114 -109 132 -57 25 -150 27 -205 6z m113
-67 c4 -1 11 -2 16 -3 18 -2 61 -48 61 -65 0 -9 4 -16 9 -16 5 0 8 -47 6 -107
-4 -124 -5 -133 -17 -133 -4 0 -8 -6 -8 -13 0 -8 -12 -24 -26 -38 -32 -30
-110 -34 -125 -7 -5 9 -15 23 -22 30 -38 39 -48 217 -16 282 17 35 53 71 71
71 3 0 10 3 14 7 4 4 12 4 18 0 6 -4 14 -7 19 -8z"/>
<path d="M4977 9225 c-103 -35 -150 -115 -153 -260 -3 -140 38 -230 127 -276
52 -26 141 -32 194 -12 52 19 115 87 137 145 22 62 19 226 -6 282 -20 45 -75
102 -114 118 -40 16 -143 18 -185 3z m150 -99 c14 -15 26 -33 27 -39 1 -7 5
-18 10 -25 9 -14 10 -135 2 -190 -6 -44 -40 -96 -71 -110 -45 -21 -75 -14
-109 21 -42 45 -53 85 -51 187 1 70 6 94 25 128 37 66 119 79 167 28z"/>
<path d="M5521 9230 l-124 -5 -2 -30 c-1 -16 -6 -68 -10 -115 -14 -147 -21
-132 65 -132 119 -1 162 -29 162 -105 0 -43 -26 -69 -78 -79 -22 -5 -42 -7
-46 -6 -3 1 -21 4 -38 7 -18 3 -45 12 -61 21 l-29 15 6 -43 c4 -24 9 -46 13
-50 7 -8 118 -34 141 -32 57 3 131 33 166 68 34 34 46 65 46 120 2 107 -71
163 -214 165 l-47 1 2 50 c1 27 6 50 10 50 5 0 6 3 3 8 -2 4 31 7 75 6 66 -1
86 -5 110 -23 l30 -23 -6 34 c-3 18 -7 44 -9 58 -2 14 -4 30 -4 35 -1 6 -10
11 -19 10 -10 0 -74 -2 -142 -5z"/>
<path d="M3896 9217 c-38 -12 -40 -15 -51 -69 l-11 -57 29 21 c40 28 109 35
142 14 30 -20 46 -71 32 -106 -11 -27 -74 -116 -101 -143 -9 -8 -16 -18 -16
-22 0 -3 -11 -18 -25 -33 -32 -34 -108 -132 -103 -133 1 -1 75 -2 163 -4 88
-1 165 -3 170 -5 22 -6 37 1 32 14 -3 8 -3 17 0 20 4 3 8 21 10 38 1 18 5 44
8 58 5 24 5 24 -10 6 -8 -10 -12 -23 -9 -28 3 -4 -1 -11 -9 -14 -18 -7 -157
-12 -157 -6 0 5 79 100 114 137 35 37 68 122 65 168 -8 119 -134 186 -273 144z"/>
<path d="M2324 9167 c-16 -9 -156 -120 -284 -224 -40 -33 -251 -202 -284 -228
-21 -16 -46 -37 -56 -45 -44 -36 -62 -51 -180 -144 -69 -55 -134 -108 -145
-118 -11 -10 -58 -48 -105 -84 -47 -37 -87 -69 -90 -73 -3 -3 -23 -19 -45 -36
-22 -16 -45 -34 -51 -40 -7 -5 -26 -21 -44 -35 -18 -14 -37 -30 -44 -35 -6 -6
-29 -24 -50 -40 -22 -17 -51 -40 -64 -52 -14 -13 -28 -23 -32 -23 -3 0 -13
-15 -22 -32 -20 -43 -10 -71 46 -124 23 -23 62 -65 87 -94 24 -29 50 -58 56
-66 7 -7 13 -17 13 -23 0 -6 4 -11 9 -11 5 0 24 -24 42 -52 18 -29 36 -55 39
-58 23 -22 156 -274 148 -283 -2 -2 2 -10 8 -18 15 -19 83 -229 90 -279 1 -8
7 -37 12 -65 29 -145 32 -361 7 -550 -18 -137 -23 -166 -46 -275 -11 -52 -22
-106 -24 -120 -2 -14 -18 -74 -34 -135 -16 -60 -35 -130 -41 -155 -7 -25 -16
-54 -20 -65 -5 -11 -14 -38 -21 -60 -6 -22 -30 -87 -52 -145 -59 -158 -107
-291 -118 -330 -6 -19 -13 -42 -16 -50 -3 -8 -7 -19 -9 -25 -1 -5 -12 -42 -23
-81 -19 -67 -55 -217 -66 -274 -3 -14 -8 -36 -11 -50 -8 -33 -12 -58 -18 -100
-3 -19 -7 -44 -10 -55 -2 -12 -7 -48 -11 -80 -4 -33 -9 -68 -11 -77 -1 -9 -6
-54 -9 -100 -4 -46 -9 -99 -11 -118 -8 -67 -3 -535 5 -535 1 0 4 -22 6 -50 2
-27 11 -79 20 -115 8 -36 18 -83 21 -104 3 -22 9 -47 14 -56 5 -9 11 -28 14
-41 21 -109 124 -352 227 -538 53 -94 187 -286 246 -351 7 -8 30 -35 51 -59
63 -76 224 -233 318 -311 49 -41 91 -77 94 -80 20 -20 91 -70 99 -70 6 0 11
-4 11 -8 0 -5 16 -17 35 -28 19 -10 35 -21 35 -25 0 -3 16 -14 35 -25 19 -10
35 -22 35 -26 0 -5 4 -8 10 -8 9 0 72 -39 96 -59 7 -6 15 -7 18 -4 3 4 6 1 6
-5 0 -7 4 -12 10 -12 5 0 34 -16 64 -35 30 -19 62 -35 70 -35 8 0 16 -4 18 -9
2 -7 241 -133 258 -136 3 0 36 -15 73 -33 38 -18 70 -32 72 -32 3 0 28 -11 57
-24 44 -20 83 -35 108 -41 3 -1 19 -7 35 -14 45 -19 253 -88 305 -101 74 -18
213 -61 245 -75 17 -8 44 -17 60 -21 17 -4 39 -12 50 -17 11 -6 25 -12 30 -13
11 -2 146 -55 205 -81 227 -99 504 -263 582 -344 10 -10 23 -21 30 -26 13 -8
100 -102 128 -139 8 -10 24 -39 34 -64 31 -71 48 -85 109 -85 60 0 75 11 97
65 7 19 19 42 27 51 7 8 13 20 13 26 0 13 165 181 203 208 16 11 48 35 70 52
23 18 48 33 55 33 6 0 12 3 12 8 0 4 28 23 63 42 34 19 71 40 82 46 29 17 194
99 235 117 43 18 187 77 215 87 11 4 45 17 75 28 30 12 70 25 88 28 17 4 32
10 32 14 0 3 6 7 13 7 24 0 537 162 547 173 3 3 12 6 20 8 54 12 461 198 468
215 2 4 7 5 12 2 5 -3 14 0 22 7 7 7 36 24 63 38 28 14 52 27 55 30 3 3 21 14
40 24 39 22 209 130 225 143 6 5 39 29 75 53 63 44 91 65 114 85 6 6 33 28 60
50 116 93 301 274 372 361 21 27 44 54 50 59 26 24 137 179 196 276 93 151
135 235 207 414 36 90 98 304 106 370 3 22 8 47 10 55 17 59 27 200 29 415 1
94 0 174 -2 179 -3 5 -6 36 -8 70 -5 96 -19 239 -29 296 -3 14 -8 45 -11 70
-3 25 -8 54 -11 65 -2 11 -8 43 -13 70 -30 161 -84 365 -155 580 -27 80 -96
258 -116 297 -5 10 -9 27 -9 37 0 11 -4 23 -10 26 -5 3 -10 15 -10 25 0 10 -4
29 -9 42 -5 13 -10 28 -11 33 -1 6 -6 18 -12 29 -6 10 -11 28 -13 40 -1 11
-13 55 -25 96 -24 81 -27 94 -60 245 -36 164 -48 239 -67 395 -9 81 -9 334 0
417 5 50 30 169 51 253 27 100 177 431 205 450 4 3 16 20 26 39 9 19 26 44 37
55 11 12 27 33 36 49 9 15 20 27 24 27 4 0 8 4 8 9 0 11 32 49 118 137 34 36
63 73 63 82 1 9 3 27 4 39 1 15 -8 31 -29 47 -17 13 -40 32 -51 42 -11 11 -47
42 -80 69 -33 28 -71 60 -85 71 -14 12 -68 57 -120 100 -52 43 -100 84 -106
89 -6 6 -31 27 -54 46 -23 18 -47 39 -54 44 -6 6 -51 44 -101 85 -49 41 -92
77 -95 80 -5 6 -290 243 -324 270 -10 8 -23 20 -30 26 -6 5 -56 48 -111 93
-55 46 -102 87 -105 90 -3 4 -27 24 -54 44 -41 31 -55 37 -80 31 -31 -6 -66
-35 -66 -53 0 -24 -95 -166 -151 -227 -33 -37 -93 -92 -152 -141 -15 -13 -53
-40 -84 -60 -32 -21 -60 -40 -63 -43 -3 -3 -25 -16 -50 -29 -25 -13 -53 -31
-64 -40 -10 -9 -21 -16 -25 -15 -13 2 -61 -18 -61 -27 0 -5 -5 -9 -11 -9 -6 0
-63 -21 -127 -46 -65 -26 -121 -47 -127 -48 -5 -1 -37 -11 -70 -21 -33 -10
-62 -19 -65 -20 -3 0 -48 -11 -100 -24 -99 -24 -112 -27 -170 -37 -19 -4 -44
-8 -55 -10 -36 -7 -199 -32 -250 -39 -60 -8 -86 -10 -240 -21 -148 -11 -948
-11 -1065 0 -47 4 -110 10 -140 12 -65 5 -132 12 -180 21 -19 3 -46 7 -60 8
-79 10 -232 38 -290 55 -19 6 -45 12 -57 13 -12 2 -26 6 -29 10 -4 4 -15 7
-24 7 -9 0 -43 9 -76 20 -32 12 -72 23 -89 26 -16 3 -34 9 -40 13 -5 4 -44 20
-85 36 -72 27 -300 140 -310 153 -3 4 -25 20 -50 37 -53 35 -98 72 -160 131
-105 100 -152 163 -202 272 -46 97 -80 121 -134 89z"/>
</g>
</svg>
