<?xml version="1.0" encoding="utf-8"?>
<!-- Generator: Adobe Illustrator 24.3.0, SVG Export Plug-In . SVG Version: 6.00 Build 0)  -->
<svg version="1.1" id="Layer_1" xmlns="http://www.w3.org/2000/svg" xmlns:xlink="http://www.w3.org/1999/xlink" x="0px" y="0px"
	 viewBox="0 0 217.5 26.3" style="enable-background:new 0 0 217.5 26.3;" xml:space="preserve">
<style type="text/css">
	.st0{fill:#FFFFFF;}
	.st1{fill:#FFFFFF;stroke:#FFFFFF;stroke-width:0.3;stroke-miterlimit:10;}
</style>
<g>
	<g>
		<path class="st0" d="M3.8,23c-0.7-0.4-1.3-1-1.6-1.7c-0.4-0.7-0.6-1.5-0.6-2.4c0-1,0.2-1.8,0.6-2.6c0.4-0.7,1-1.3,1.8-1.7
			c0.8-0.4,1.6-0.6,2.6-0.6c0.8,0,1.6,0.1,2.3,0.3l0.2,2.3l0,0c-0.3-0.4-0.6-0.7-1.1-0.9c-0.4-0.2-0.9-0.3-1.5-0.3
			c-0.9,0-1.7,0.3-2.2,0.9c-0.5,0.6-0.8,1.4-0.8,2.4c0,1,0.2,1.9,0.7,2.5c0.5,0.6,1.2,1,2.1,1c0.7,0,1.3-0.1,1.7-0.4
			c0.5-0.3,0.9-0.6,1.3-1.1l0,0l-0.3,2.4c-1,0.3-1.9,0.5-2.8,0.5C5.4,23.6,4.5,23.4,3.8,23z"/>
		<path class="st0" d="M12.4,23c-0.7-0.4-1.3-1-1.6-1.7c-0.4-0.7-0.6-1.5-0.6-2.5c0-1,0.2-1.9,0.6-2.6c0.4-0.7,1-1.3,1.7-1.7
			c0.7-0.4,1.6-0.6,2.6-0.6c0.9,0,1.8,0.2,2.5,0.6s1.3,1,1.7,1.7c0.4,0.7,0.6,1.6,0.6,2.5c0,1-0.2,1.8-0.6,2.6
			c-0.4,0.8-1,1.3-1.7,1.8c-0.8,0.4-1.6,0.6-2.6,0.6C14,23.7,13.1,23.4,12.4,23z M16.5,21.8c0.4-0.3,0.8-0.7,1-1.2
			c0.2-0.5,0.4-1.1,0.4-1.8c0-1.1-0.3-2-0.8-2.6c-0.5-0.6-1.2-0.9-2.1-0.9c-0.6,0-1.1,0.1-1.5,0.4c-0.4,0.3-0.8,0.7-1,1.2
			c-0.2,0.5-0.3,1.1-0.3,1.8c0,1.1,0.2,2,0.7,2.6c0.5,0.6,1.2,0.9,2.1,0.9C15.6,22.3,16.1,22.1,16.5,21.8z"/>
		<path class="st0" d="M24,22.7c0.1,0.3,0.3,0.6,0.5,0.7v0h-3.2v0c0.2-0.1,0.4-0.4,0.5-0.7c0.1-0.3,0.2-0.8,0.2-1.3v-5.3
			c0-0.5-0.1-0.9-0.2-1.2c-0.1-0.3-0.3-0.6-0.5-0.7v0h3.2v0c-0.2,0.1-0.3,0.4-0.5,0.7c-0.1,0.3-0.2,0.8-0.2,1.3v5.3
			C23.8,21.9,23.9,22.3,24,22.7z M29.2,22.7c0.2,0.2,0.5,0.4,0.8,0.5v0l-2.7,0.5c0-0.2-0.1-0.3-0.2-0.6c-0.1-0.2-0.3-0.5-0.4-0.7
			l-2.7-4l2.3-3.2c0.3-0.4,0.5-0.8,0.4-1.1h2.8v0c-0.3,0.1-0.5,0.3-0.8,0.6c-0.3,0.3-0.5,0.6-0.8,0.9L26,18.2l2.5,3.7
			C28.7,22.2,29,22.5,29.2,22.7z"/>
		<path class="st0" d="M32,23c-0.7-0.4-1.3-1-1.6-1.7c-0.4-0.7-0.6-1.5-0.6-2.5c0-1,0.2-1.9,0.6-2.6c0.4-0.7,1-1.3,1.7-1.7
			c0.7-0.4,1.6-0.6,2.6-0.6c0.9,0,1.8,0.2,2.5,0.6s1.3,1,1.7,1.7c0.4,0.7,0.6,1.6,0.6,2.5c0,1-0.2,1.8-0.6,2.6
			c-0.4,0.8-1,1.3-1.7,1.8c-0.8,0.4-1.6,0.6-2.6,0.6C33.6,23.7,32.8,23.4,32,23z M36.2,21.8c0.4-0.3,0.8-0.7,1-1.2
			c0.2-0.5,0.4-1.1,0.4-1.8c0-1.1-0.3-2-0.8-2.6c-0.5-0.6-1.2-0.9-2.1-0.9c-0.6,0-1.1,0.1-1.5,0.4c-0.4,0.3-0.8,0.7-1,1.2
			c-0.2,0.5-0.3,1.1-0.3,1.8c0,1.1,0.2,2,0.7,2.6c0.5,0.6,1.2,0.9,2.1,0.9C35.2,22.3,35.7,22.1,36.2,21.8z"/>
		<path class="st0" d="M39.6,23.4c0.2-0.2,0.4-0.5,0.7-0.9c0.2-0.4,0.5-0.8,0.6-1.3l1.7-5.3c0.1-0.3,0.1-0.6,0.1-0.8
			c0-0.2,0-0.4-0.1-0.6c-0.1-0.2-0.2-0.3-0.3-0.4v0H46v0c-0.2,0.2-0.3,0.5-0.3,0.9c0,0.2,0.1,0.5,0.2,0.9l1.8,5.3
			c0.2,0.5,0.4,0.9,0.6,1.3c0.2,0.4,0.5,0.7,0.7,0.9v0h-3.1v0c0.1-0.1,0.2-0.3,0.2-0.6c0-0.3-0.1-0.6-0.2-1.1l-0.9-3
			c-0.2-0.6-0.3-1.1-0.4-1.5c-0.1-0.4-0.2-0.8-0.3-1.3h-0.1c-0.1,0.4-0.1,0.8-0.2,1.2c-0.1,0.4-0.3,0.9-0.4,1.5l-0.9,3
			c-0.1,0.5-0.2,0.8-0.2,1.1c0,0.3,0.1,0.5,0.2,0.6v0L39.6,23.4L39.6,23.4z"/>
		<path class="st0" d="M51.2,23c-0.7-0.4-1.3-1-1.6-1.7c-0.4-0.7-0.6-1.5-0.6-2.5c0-1,0.2-1.9,0.6-2.6c0.4-0.7,1-1.3,1.7-1.7
			c0.7-0.4,1.6-0.6,2.6-0.6c0.9,0,1.8,0.2,2.5,0.6s1.3,1,1.7,1.7c0.4,0.7,0.6,1.6,0.6,2.5c0,1-0.2,1.8-0.6,2.6
			c-0.4,0.8-1,1.3-1.7,1.8c-0.8,0.4-1.6,0.6-2.6,0.6C52.8,23.7,51.9,23.4,51.2,23z M55.3,21.8c0.4-0.3,0.8-0.7,1-1.2
			c0.2-0.5,0.4-1.1,0.4-1.8c0-1.1-0.3-2-0.8-2.6c-0.5-0.6-1.2-0.9-2.1-0.9c-0.6,0-1.1,0.1-1.5,0.4c-0.4,0.3-0.8,0.7-1,1.2
			C51.1,17.4,51,18,51,18.7c0,1.1,0.2,2,0.7,2.6c0.5,0.6,1.2,0.9,2.1,0.9C54.4,22.3,54.9,22.1,55.3,21.8z"/>
		<path class="st0" d="M66.2,18.8c0.3,0.2,0.6,0.5,0.7,0.8c0.2,0.3,0.3,0.7,0.3,1c0,0.9-0.3,1.5-0.9,2c-0.6,0.5-1.3,0.7-2.3,0.7h-4
			v0c0.2-0.2,0.4-0.4,0.6-0.7s0.2-0.8,0.2-1.3v-5.1c0-0.5-0.1-0.9-0.2-1.3s-0.3-0.6-0.6-0.8v0h3.7c1,0,1.8,0.2,2.3,0.6
			s0.8,1,0.8,1.8c0,0.3-0.1,0.6-0.2,0.9s-0.3,0.5-0.6,0.7c-0.2,0.2-0.5,0.3-0.7,0.3v0C65.5,18.5,65.9,18.6,66.2,18.8z M62.6,15.4
			v2.4h1c0.4,0,0.7-0.1,0.9-0.3c0.2-0.2,0.3-0.5,0.3-1c0-0.4-0.1-0.7-0.3-0.8s-0.5-0.3-0.9-0.3H62.6z M64.9,21.7
			c0.2-0.3,0.4-0.6,0.4-1.1c0-0.5-0.1-0.8-0.4-1.1c-0.2-0.3-0.6-0.4-1.1-0.4h-1.2v3h1.2C64.3,22.1,64.7,21.9,64.9,21.7z"/>
		<path class="st0" d="M70.1,21.7c0.2,0.3,0.3,0.6,0.3,1.1c0,0.5-0.1,1-0.3,1.4c-0.2,0.5-0.5,0.9-0.9,1.2l-1-0.4v0
			c0.2-0.2,0.3-0.4,0.5-0.6c0.1-0.2,0.2-0.5,0.3-0.7c-0.3,0-0.5-0.2-0.7-0.4C68.1,23,68,22.7,68,22.4c0-0.3,0.1-0.6,0.3-0.8
			c0.2-0.2,0.5-0.3,0.8-0.3C69.6,21.2,69.9,21.4,70.1,21.7z"/>
		<path class="st0" d="M81.8,16.5L81.8,16.5c-0.2-0.3-0.4-0.5-0.7-0.7c-0.3-0.2-0.7-0.3-1-0.3h-1v5.8c0,0.5,0.1,1,0.2,1.4
			c0.2,0.4,0.3,0.6,0.6,0.7v0h-3.4v0c0.2-0.1,0.4-0.4,0.6-0.7c0.2-0.4,0.2-0.8,0.2-1.3v-5.8h-1c-0.4,0-0.7,0.1-1,0.3
			s-0.5,0.4-0.7,0.7l0,0l0.2-2.4c0.5,0.1,1.1,0.1,1.8,0.1h3.2c0.7,0,1.3,0,1.8-0.1L81.8,16.5z"/>
		<path class="st0" d="M88.9,14.9c0.6,0.5,0.9,1.3,0.9,2.2c0,1.1-0.3,1.9-0.9,2.4c-0.6,0.5-1.4,0.8-2.5,0.8h-1.1v1.1
			c0,0.5,0.1,0.9,0.2,1.2c0.1,0.3,0.3,0.6,0.5,0.7v0h-3.3v0c0.2-0.1,0.4-0.4,0.5-0.7c0.1-0.3,0.2-0.8,0.2-1.3v-5.3
			c0-0.5-0.1-0.9-0.2-1.2c-0.1-0.3-0.3-0.6-0.5-0.7v0h3.6C87.5,14.1,88.4,14.4,88.9,14.9z M87.9,17.2c0-0.6-0.1-1.1-0.4-1.4
			c-0.3-0.3-0.7-0.4-1.3-0.4h-0.8V19l0.8,0C87.3,19,87.9,18.4,87.9,17.2z"/>
		<path class="st0" d="M98.8,14.1L98.8,14.1c-0.3,0.3-0.6,0.5-0.8,0.9c-0.2,0.3-0.4,0.7-0.6,1.1l-1.9,5c-0.2,0.6-0.3,1-0.3,1.3
			c0,0.3,0.1,0.6,0.3,0.9v0h-3.2v0c0.5-0.5,1-1.2,1.3-2.1l0.5-1.3H93L91.2,16c-0.2-0.5-0.4-0.9-0.6-1.1c-0.2-0.3-0.4-0.5-0.6-0.7v0
			h3.1v0c-0.1,0.3-0.2,0.5-0.2,0.8c0,0.3,0.1,0.6,0.3,1.1l1.3,3.1l1.2-3.1c0.2-0.5,0.3-0.9,0.3-1.3c0-0.2,0-0.4-0.1-0.6H98.8z"/>
		<path class="st0" d="M101,23c-0.7-0.4-1.3-1-1.6-1.7c-0.4-0.7-0.6-1.5-0.6-2.4c0-1,0.2-1.8,0.6-2.6c0.4-0.7,1-1.3,1.8-1.7
			c0.8-0.4,1.6-0.6,2.6-0.6c0.8,0,1.6,0.1,2.3,0.3l0.2,2.3l0,0c-0.3-0.4-0.6-0.7-1.1-0.9c-0.4-0.2-0.9-0.3-1.5-0.3
			c-0.9,0-1.7,0.3-2.2,0.9c-0.5,0.6-0.8,1.4-0.8,2.4c0,1,0.2,1.9,0.7,2.5c0.5,0.6,1.2,1,2.1,1c0.7,0,1.3-0.1,1.7-0.4
			c0.5-0.3,0.9-0.6,1.3-1.1l0,0l-0.3,2.4c-1,0.3-1.9,0.5-2.8,0.5C102.5,23.6,101.7,23.4,101,23z"/>
		<path class="st0" d="M109.6,23c-0.7-0.4-1.3-1-1.6-1.7c-0.4-0.7-0.6-1.5-0.6-2.5c0-1,0.2-1.9,0.6-2.6c0.4-0.7,1-1.3,1.7-1.7
			c0.7-0.4,1.6-0.6,2.6-0.6c0.9,0,1.8,0.2,2.5,0.6s1.3,1,1.7,1.7c0.4,0.7,0.6,1.6,0.6,2.5c0,1-0.2,1.8-0.6,2.6
			c-0.4,0.8-1,1.3-1.7,1.8c-0.8,0.4-1.6,0.6-2.6,0.6C111.1,23.7,110.3,23.4,109.6,23z M113.7,21.8c0.4-0.3,0.8-0.7,1-1.2
			c0.2-0.5,0.4-1.1,0.4-1.8c0-1.1-0.3-2-0.8-2.6c-0.5-0.6-1.2-0.9-2.1-0.9c-0.6,0-1.1,0.1-1.5,0.4c-0.4,0.3-0.8,0.7-1,1.2
			c-0.2,0.5-0.3,1.1-0.3,1.8c0,1.1,0.2,2,0.7,2.6c0.5,0.6,1.2,0.9,2.1,0.9C112.8,22.3,113.3,22.1,113.7,21.8z"/>
		<path class="st0" d="M124.6,18.8c0.3,0.2,0.5,0.5,0.7,0.8c0.2,0.3,0.3,0.7,0.3,1c0,0.9-0.3,1.5-0.9,2c-0.6,0.5-1.3,0.7-2.3,0.7h-4
			v0c0.2-0.2,0.4-0.4,0.6-0.7s0.2-0.8,0.2-1.3v-5.1c0-0.5-0.1-0.9-0.2-1.3s-0.3-0.6-0.6-0.8v0h3.7c1,0,1.8,0.2,2.3,0.6
			c0.5,0.4,0.8,1,0.8,1.8c0,0.3-0.1,0.6-0.2,0.9s-0.3,0.5-0.6,0.7c-0.2,0.2-0.5,0.3-0.7,0.3v0C123.9,18.5,124.3,18.6,124.6,18.8z
			 M121,15.4v2.4h1c0.4,0,0.7-0.1,0.9-0.3c0.2-0.2,0.3-0.5,0.3-1c0-0.4-0.1-0.7-0.3-0.8s-0.5-0.3-0.9-0.3H121z M123.3,21.7
			c0.2-0.3,0.4-0.6,0.4-1.1c0-0.5-0.1-0.8-0.4-1.1c-0.2-0.3-0.6-0.4-1.1-0.4H121v3h1.2C122.7,22.1,123,21.9,123.3,21.7z"/>
		<path class="st0" d="M130.3,23.4c0.2-0.1,0.3-0.4,0.5-0.7s0.2-0.8,0.2-1.3v-5.3c0-0.5-0.1-0.9-0.2-1.3c-0.1-0.3-0.3-0.6-0.5-0.7v0
			h3.2v0c-0.2,0.1-0.3,0.4-0.5,0.7c-0.1,0.3-0.2,0.8-0.2,1.3v2.3c0,0.8-0.1,1.7-0.3,2.8h0.1c0.3-0.8,0.7-1.7,1.3-2.7l1.9-3.2
			c0.2-0.3,0.3-0.6,0.4-0.8c0.1-0.2,0.1-0.3,0.1-0.5h2.9v0c-0.1,0.1-0.2,0.2-0.3,0.4c-0.1,0.2-0.2,0.4-0.3,0.7
			c-0.1,0.3-0.1,0.5-0.1,0.8v5.3c0,0.5,0.1,0.9,0.2,1.3s0.3,0.6,0.5,0.7v0H136v0c0.2-0.1,0.4-0.4,0.5-0.7c0.1-0.3,0.2-0.8,0.2-1.3
			V19c0-0.9,0.1-1.9,0.4-3H137c-0.4,1-0.8,2-1.3,2.8l-2,3.2c-0.3,0.5-0.5,0.9-0.7,1.3L130.3,23.4L130.3,23.4z"/>
		<path class="st0" d="M144.2,23.4c0.2-0.1,0.4-0.4,0.5-0.7c0.1-0.3,0.2-0.8,0.2-1.3v-5.3c0-0.5-0.1-0.9-0.2-1.3
			c-0.1-0.3-0.2-0.6-0.4-0.7v0h8.2v0c-0.2,0.1-0.3,0.3-0.4,0.7c-0.1,0.3-0.2,0.8-0.2,1.3v5.3c0,0.5,0.1,0.9,0.2,1.3
			c0.1,0.3,0.3,0.6,0.5,0.7v0h-3.3v0c0.2-0.1,0.4-0.4,0.5-0.7c0.1-0.3,0.2-0.8,0.2-1.3v-5.9h-3.4v5.9c0,0.5,0.1,0.9,0.2,1.3
			c0.1,0.3,0.3,0.6,0.5,0.7v0L144.2,23.4L144.2,23.4z"/>
		<path class="st0" d="M162,22.5c0.2,0.4,0.5,0.7,0.7,0.8v0h-3v0c0.1-0.1,0.2-0.3,0.2-0.6c0-0.3-0.1-0.6-0.2-1l-0.1-0.3h-3.4
			l-0.1,0.3c-0.1,0.4-0.2,0.7-0.2,1s0.1,0.5,0.2,0.6v0h-2.8v0c0.2-0.2,0.4-0.5,0.7-0.9s0.5-0.8,0.6-1.3l1.9-5.5
			c0.1-0.2,0.1-0.5,0.1-0.7c0-0.2,0-0.4-0.1-0.5c-0.1-0.2-0.2-0.3-0.3-0.4v0h3.5v0c-0.1,0.1-0.2,0.2-0.3,0.4
			c-0.1,0.2-0.1,0.3-0.1,0.5c0,0.2,0,0.4,0.1,0.7l2,5.5C161.6,21.7,161.8,22.1,162,22.5z M157.6,17.2c-0.1,0.4-0.3,0.9-0.5,1.5
			l-0.5,1.4h2.6l-0.5-1.4c-0.2-0.6-0.4-1.1-0.5-1.5s-0.2-0.8-0.3-1.3h-0.1C157.8,16.4,157.7,16.8,157.6,17.2z"/>
		<path class="st0" d="M169.4,14.9c0.6,0.5,0.9,1.3,0.9,2.2c0,1.1-0.3,1.9-0.9,2.4c-0.6,0.5-1.4,0.8-2.5,0.8h-1.1v1.1
			c0,0.5,0.1,0.9,0.2,1.2c0.1,0.3,0.3,0.6,0.5,0.7v0h-3.3v0c0.2-0.1,0.4-0.4,0.5-0.7c0.1-0.3,0.2-0.8,0.2-1.3v-5.3
			c0-0.5-0.1-0.9-0.2-1.2c-0.1-0.3-0.3-0.6-0.5-0.7v0h3.6C168,14.1,168.8,14.4,169.4,14.9z M168.4,17.2c0-0.6-0.1-1.1-0.4-1.4
			c-0.3-0.3-0.7-0.4-1.3-0.4h-0.8V19l0.8,0C167.8,19,168.4,18.4,168.4,17.2z"/>
		<path class="st0" d="M178.4,16.5L178.4,16.5c-0.2-0.3-0.4-0.5-0.7-0.7s-0.7-0.3-1-0.3h-1v5.8c0,0.5,0.1,1,0.2,1.4
			c0.2,0.4,0.3,0.6,0.6,0.7v0H173v0c0.2-0.1,0.4-0.4,0.6-0.7c0.2-0.4,0.2-0.8,0.2-1.3v-5.8h-1c-0.4,0-0.7,0.1-1,0.3
			c-0.3,0.2-0.5,0.4-0.7,0.7l0,0l0.2-2.4c0.5,0.1,1.2,0.1,1.8,0.1h3.2c0.7,0,1.3,0,1.8-0.1L178.4,16.5z"/>
		<path class="st0" d="M187.5,14.9c-0.1,0.3-0.2,0.8-0.2,1.3v5.3c0,0.5,0.1,0.9,0.2,1.2c0.1,0.3,0.3,0.6,0.5,0.7v0h-3.2v0
			c0.2-0.1,0.3-0.4,0.5-0.7s0.2-0.7,0.2-1.2v-2.3h-3.5v2.3c0,0.5,0.1,0.9,0.2,1.3c0.1,0.3,0.3,0.6,0.5,0.7v0h-3.2v0
			c0.2-0.1,0.4-0.4,0.5-0.7c0.1-0.3,0.2-0.8,0.2-1.3v-5.3c0-0.5-0.1-0.9-0.2-1.3c-0.1-0.3-0.3-0.6-0.5-0.7v0h3.2v0
			c-0.2,0.1-0.3,0.4-0.5,0.7s-0.2,0.8-0.2,1.3v1.7h3.5v-1.7c0-0.5-0.1-0.9-0.2-1.3c-0.1-0.3-0.3-0.6-0.5-0.7v0h3.2v0
			C187.8,14.3,187.7,14.5,187.5,14.9z"/>
		<path class="st0" d="M196.3,20.8l-0.4,2.7c-0.2,0-0.5-0.1-0.7-0.1c-0.2,0-0.5,0-0.9,0h-4.7v0c0.2-0.1,0.4-0.4,0.5-0.7
			c0.1-0.3,0.2-0.8,0.2-1.3v-5.3c0-0.5-0.1-0.9-0.2-1.3c-0.1-0.3-0.3-0.6-0.5-0.7v0h4.8c0.6,0,1.1,0,1.4-0.1l0.2,2.4l0,0
			c-0.2-0.3-0.4-0.6-0.8-0.7c-0.4-0.2-0.8-0.2-1.3-0.2h-1.8v2.3h1c0.6,0,1,0,1.2,0c0.3,0,0.5,0,0.8-0.1l-0.4,2.2h0
			c-0.1-0.3-0.3-0.5-0.5-0.6c-0.2-0.1-0.6-0.2-0.9-0.2h-1.2v3h1.5c0.6,0,1.1-0.1,1.6-0.3S196,21.2,196.3,20.8L196.3,20.8z"/>
		<path class="st0" d="M203.7,14.9c0.6,0.5,0.9,1.3,0.9,2.2c0,1.1-0.3,1.9-0.9,2.4c-0.6,0.5-1.4,0.8-2.5,0.8h-1.1v1.1
			c0,0.5,0.1,0.9,0.2,1.2c0.1,0.3,0.3,0.6,0.5,0.7v0h-3.3v0c0.2-0.1,0.4-0.4,0.5-0.7c0.1-0.3,0.2-0.8,0.2-1.3v-5.3
			c0-0.5-0.1-0.9-0.2-1.2s-0.3-0.6-0.5-0.7v0h3.6C202.3,14.1,203.1,14.4,203.7,14.9z M202.7,17.2c0-0.6-0.1-1.1-0.4-1.4
			c-0.3-0.3-0.7-0.4-1.3-0.4h-0.8V19l0.8,0C202.1,19,202.7,18.4,202.7,17.2z"/>
		<path class="st0" d="M212,18.1c0.6,0.5,0.9,1.2,0.9,2.2c0,0.7-0.1,1.2-0.4,1.7c-0.3,0.5-0.7,0.8-1.2,1.1c-0.5,0.2-1,0.4-1.6,0.4
			h-3.9v0c0.2-0.1,0.4-0.4,0.5-0.7c0.1-0.3,0.2-0.8,0.2-1.3v-5.3c0-0.5-0.1-0.9-0.2-1.2s-0.3-0.6-0.5-0.7v0h3.3v0
			c-0.2,0.1-0.4,0.4-0.5,0.7c-0.1,0.3-0.2,0.8-0.2,1.3v1.2h1.3C210.6,17.3,211.4,17.6,212,18.1z M211,20.3c0-0.6-0.2-1-0.5-1.3
			c-0.3-0.3-0.8-0.4-1.4-0.4h-0.8v3.4h0.8C210.4,22.1,211,21.5,211,20.3z M213.4,23.4c0.2-0.1,0.4-0.4,0.5-0.7
			c0.1-0.3,0.2-0.8,0.2-1.3v-5.3c0-0.5-0.1-0.9-0.2-1.3c-0.1-0.3-0.3-0.6-0.5-0.7v0h3.3v0c-0.2,0.1-0.4,0.4-0.5,0.7
			c-0.1,0.3-0.2,0.8-0.2,1.3v5.3c0,0.5,0.1,0.9,0.2,1.3c0.1,0.3,0.3,0.6,0.5,0.7v0L213.4,23.4L213.4,23.4z"/>
	</g>
</g>
<g>
	<path class="st1" d="M4.6,2c0-0.1-0.1-0.1-0.2-0.1c-0.1,0-0.1,0-0.2,0.1L2.6,5.9c0,0.1,0,0.2,0.1,0.2l0,0c0.1,0,0.2,0,0.2-0.1
		c0,0,0.4-1,0.4-1.1c0-0.1,0.1-0.1,0.1-0.1c0.1,0,1.4,0,1.7,0c0.1,0,0.1,0,0.1,0.1C5.4,5,5.9,6,5.9,6c0,0.1,0.1,0.1,0.2,0.1l0,0
		c0.1,0,0.1-0.1,0.1-0.2L4.6,2z M5.1,4.5c-0.1,0-1.1,0-1.4,0c-0.1,0-0.1,0-0.1-0.1c0,0,0.6-1.4,0.7-1.8c0-0.1,0.1-0.1,0.1,0
		C4.6,3,5.1,4.3,5.1,4.5C5.2,4.5,5.2,4.5,5.1,4.5z"/>
	<path class="st1" d="M11.9,5.8c0,0,0,0-0.1,0c-0.1,0-0.1,0-0.2-0.1c0-0.1-1.5-3.7-1.5-3.7c0-0.1-0.1-0.1-0.2-0.1
		c-0.1,0-0.1,0-0.2,0.1c0,0-1.5,3.6-1.5,3.7c0,0.1-0.1,0.1-0.2,0.1C8,5.8,8,5.8,8,5.8c-0.1,0-0.2,0.1-0.2,0.2v0
		c0,0.1,0.1,0.2,0.2,0.2h4c0.1,0,0.2-0.1,0.2-0.2v0C12.1,5.8,12,5.8,11.9,5.8z M11.2,5.8c-0.5,0-2.4,0-2.4,0c-0.1,0-0.1-0.1-0.1-0.2
		C8.9,5,9.8,2.8,9.8,2.7c0.1-0.3,0.1-0.3,0.2,0c0,0.1,0.9,2.3,1.2,2.9C11.3,5.7,11.3,5.8,11.2,5.8z"/>
	<path class="st1" d="M16.1,3.8c-0.1,0-0.1-0.1,0-0.1c0.3-0.2,0.5-0.4,0.5-0.8c0-0.8-0.6-1.1-1.4-1.1h-1C14,1.9,13.9,2,13.9,2V6
		c0,0.1,0.1,0.2,0.2,0.2h1.2c0.8,0,1.5-0.5,1.5-1.2C16.7,4.4,16.4,4.1,16.1,3.8z M14.3,2.4c0-0.1,0-0.1,0.1-0.1s0.7,0,0.7,0
		c0.6,0,1,0.1,1,0.7c0,0.5-0.4,0.6-1,0.6c0,0-0.6,0-0.7,0c-0.1,0-0.1,0-0.1-0.1C14.3,3.2,14.3,2.4,14.3,2.4z M15.3,5.8
		c0,0-0.7,0-0.8,0c-0.1,0-0.1,0-0.1-0.1c0-0.1,0-1.2,0-1.5c0-0.1,0-0.1,0.1-0.1c0.1,0,0.8,0,0.8,0c0.6,0,1.1,0.4,1.1,0.9
		C16.4,5.5,15.8,5.8,15.3,5.8z"/>
	<path class="st1" d="M20.8,1.8c-1.2,0-2.2,1-2.2,2.2c0,1.2,1,2.2,2.2,2.2S23,5.2,23,4C23,2.8,22,1.8,20.8,1.8z M20.8,5.9
		C19.8,5.9,19,5,19,4c0-1,0.8-1.9,1.8-1.9c1,0,1.8,0.8,1.8,1.9C22.6,5,21.8,5.9,20.8,5.9z"/>
	<path class="st1" d="M26.1,3.7C26,3.6,26,3.6,26.1,3.4c0.1-0.1,1-1.3,1-1.3c0.1-0.1,0-0.2,0-0.3l0,0c-0.1-0.1-0.2,0-0.3,0
		c0,0-1.3,1.7-1.4,1.8c-0.1,0.1-0.1,0.1-0.1-0.1c0-0.1,0-1.7,0-1.7c0-0.1-0.1-0.2-0.2-0.2h0C25,1.9,24.9,2,24.9,2V6
		c0,0.1,0.1,0.2,0.2,0.2h0c0.1,0,0.2-0.1,0.2-0.2c0,0,0-1.1,0-1.2c0-0.2,0-0.3,0.1-0.3c0-0.1,0.2-0.2,0.3-0.4c0-0.1,0.1-0.1,0.1,0
		c0,0.1,1.3,2,1.3,2c0.1,0.1,0.2,0.1,0.3,0.1l0,0c0.1-0.1,0.1-0.2,0.1-0.3C27.4,5.9,26.1,3.8,26.1,3.7z"/>
	<path class="st1" d="M31.1,2c0-0.1-0.1-0.1-0.2-0.1c-0.1,0-0.1,0-0.2,0.1l-1.6,3.9c0,0.1,0,0.2,0.1,0.2l0,0c0.1,0,0.2,0,0.2-0.1
		c0,0,0.4-1,0.4-1.1c0-0.1,0.1-0.1,0.1-0.1c0.1,0,1.4,0,1.7,0c0.1,0,0.1,0,0.1,0.1C31.9,5,32.3,6,32.3,6c0,0.1,0.1,0.1,0.2,0.1l0,0
		c0.1,0,0.1-0.1,0.1-0.2L31.1,2z M31.6,4.5c-0.1,0-1.1,0-1.4,0c-0.1,0-0.1,0-0.1-0.1c0,0,0.6-1.4,0.7-1.8c0-0.1,0.1-0.1,0.1,0
		C31.1,3,31.6,4.3,31.6,4.5C31.7,4.5,31.7,4.5,31.6,4.5z"/>
	<path class="st1" d="M36.5,1.9h-2.3C34.1,1.9,34,2,34,2v0c0,0.1,0.1,0.2,0.2,0.2h0.9c0.1,0,0.1,0,0.1,0.1V6c0,0.1,0.1,0.2,0.2,0.2
		h0c0.1,0,0.2-0.1,0.2-0.2V2.3c0,0,0-0.1,0.1-0.1h0.9c0.1,0,0.2-0.1,0.2-0.2v0C36.7,2,36.6,1.9,36.5,1.9z"/>
	<path class="st1" d="M40.4,1.8c-1.2,0-2.2,1-2.2,2.2c0,1.2,1,2.2,2.2,2.2c0.6,0,1-0.2,1.4-0.5c0,0,0.1-0.1,0.1-0.1c0,0,0-0.2,0-0.4
		c0-0.1,0-0.1-0.1,0c-0.3,0.4-0.8,0.7-1.4,0.7c-1,0-1.8-0.8-1.8-1.9s0.8-1.9,1.8-1.9c0.6,0,1.1,0.3,1.4,0.7c0,0,0.1,0,0.1,0
		c0-0.1,0-0.3,0-0.4c0-0.1,0-0.1-0.1-0.1C41.4,2,40.9,1.8,40.4,1.8z"/>
	<path class="st1" d="M44.9,3.7c-0.1-0.1-0.1-0.2,0.1-0.3c0.1-0.1,1-1.3,1-1.3c0.1-0.1,0-0.2,0-0.3l0,0c-0.1-0.1-0.2,0-0.3,0
		c0,0-1.3,1.7-1.4,1.8c-0.1,0.1-0.1,0.1-0.1-0.1c0-0.1,0-1.7,0-1.7c0-0.1-0.1-0.2-0.2-0.2h0c-0.1,0-0.2,0.1-0.2,0.2V6
		c0,0.1,0.1,0.2,0.2,0.2h0c0.1,0,0.2-0.1,0.2-0.2c0,0,0-1.1,0-1.2c0-0.2,0-0.3,0.1-0.3c0-0.1,0.2-0.2,0.3-0.4c0-0.1,0.1-0.1,0.1,0
		c0,0.1,1.3,2,1.3,2c0.1,0.1,0.2,0.1,0.3,0.1l0,0c0.1-0.1,0.1-0.2,0.1-0.3C46.2,5.9,45,3.8,44.9,3.7z"/>
	<path class="st1" d="M50,1.8c-1.2,0-2.2,1-2.2,2.2c0,1.2,1,2.2,2.2,2.2s2.2-1,2.2-2.2C52.2,2.8,51.2,1.8,50,1.8z M50,5.9
		c-1,0-1.8-0.8-1.8-1.9c0-1,0.8-1.9,1.8-1.9S51.8,3,51.8,4C51.8,5,51,5.9,50,5.9z"/>
	<path class="st1" d="M56.4,5.8h-1.8c-0.1,0-0.1,0-0.1-0.1V4.2c0-0.1,0-0.1,0.1-0.1h1.5c0.1,0,0.2-0.1,0.2-0.2v0
		c0-0.1-0.1-0.2-0.2-0.2h-1.5c-0.1,0-0.1,0-0.1-0.1V2.3c0,0,0-0.1,0.1-0.1h1.7c0.1,0,0.2-0.1,0.2-0.2v0c0-0.1-0.1-0.2-0.2-0.2h-2
		c-0.1,0-0.2,0.1-0.2,0.2V6c0,0.1,0.1,0.2,0.2,0.2h2.1c0.1,0,0.2-0.1,0.2-0.2v0C56.6,5.8,56.5,5.8,56.4,5.8z"/>
	<path class="st1" d="M63.7,3.5c0,0-0.9,0-0.9,0c-0.1,0-0.1,0-0.1-0.1V2.3c0,0,0-0.1,0.1-0.1h1.6c0.1,0,0.2-0.1,0.2-0.2v0
		c0-0.1-0.1-0.2-0.2-0.2h-1.9c-0.1,0-0.2,0.1-0.2,0.2V6c0,0.1,0.1,0.2,0.2,0.2c0,0,1.2,0,1.2,0c0.7,0,1.4-0.6,1.4-1.3
		C65.1,4,64.4,3.5,63.7,3.5z M63.6,5.8h-0.9c-0.1,0-0.1,0-0.1-0.1V3.9c0-0.1,0-0.1,0.1-0.1h0.9c0.6,0,1,0.4,1,1
		C64.7,5.4,64.2,5.8,63.6,5.8z"/>
	<path class="st1" d="M70.2,1.8c-1.1,0-2,0.8-2.2,1.8c0,0.1,0,0.1-0.1,0.1c0,0-0.4,0-0.5,0c-0.1,0-0.1,0-0.1-0.1V2
		c0-0.1-0.1-0.2-0.2-0.2h0C67.1,1.9,67,2,67,2V6c0,0.1,0.1,0.2,0.2,0.2h0c0.1,0,0.2-0.1,0.2-0.2V4.2c0,0,0-0.1,0.1-0.1
		c0,0,0.4,0,0.5,0C68,4.1,68,4.2,68,4.3c0.1,1.1,1.1,1.9,2.2,1.9c1.2,0,2.2-1,2.2-2.2C72.4,2.8,71.5,1.8,70.2,1.8z M70.2,5.9
		c-1,0-1.8-0.8-1.8-1.9c0-1,0.8-1.9,1.8-1.9S72,3,72,4C72,5,71.2,5.9,70.2,5.9z"/>
	<path class="st1" d="M75.6,1.9h-1.1c-0.1,0-0.2,0.1-0.2,0.2V6c0,0.1,0.1,0.2,0.2,0.2h0c0.1,0,0.2-0.1,0.2-0.2V4.6
		c0-0.1,0-0.1,0.1-0.1h0.8c0.8,0,1.5-0.5,1.5-1.3C77.1,2.4,76.4,1.9,75.6,1.9z M75.6,4.1h-0.8c-0.1,0-0.1,0-0.1-0.1V2.3
		c0,0,0-0.1,0.1-0.1h0.8c0.6,0,1.1,0.3,1.1,0.9C76.7,3.8,76.2,4.1,75.6,4.1z"/>
	<path class="st1" d="M81.1,1.8c-1.2,0-2.2,1-2.2,2.2c0,1.2,1,2.2,2.2,2.2c1.2,0,2.2-1,2.2-2.2C83.3,2.8,82.3,1.8,81.1,1.8z
		 M81.1,5.9c-1,0-1.8-0.8-1.8-1.9c0-1,0.8-1.9,1.8-1.9S82.9,3,82.9,4C82.9,5,82.1,5.9,81.1,5.9z"/>
	<path class="st1" d="M90.8,1.9h-1.6C89.1,1.9,89,2,89,2V6c0,0.1,0.1,0.2,0.2,0.2h0c0.1,0,0.2-0.1,0.2-0.2V2.3c0,0,0-0.1,0.1-0.1
		h1.3c0.1,0,0.2-0.1,0.2-0.2v0C91,2,90.9,1.9,90.8,1.9z"/>
	<path class="st1" d="M93.1,5.5L93.1,5.5c-0.2,0-0.4,0.1-0.4,0.3v0c0,0.2,0.2,0.4,0.3,0.4h0c0.2,0,0.3-0.2,0.3-0.4v0
		C93.5,5.6,93.3,5.5,93.1,5.5z"/>
	<path class="st1" d="M98.9,1.9c-0.1,0-0.1,0-0.1,0.1c0,0-1.2,1.5-1.3,1.6c-0.1,0.2-0.1,0.2-0.3,0c-0.1-0.1-1.3-1.6-1.3-1.6
		c0,0-0.1-0.1-0.1-0.1c-0.1,0-0.2,0.1-0.2,0.2V6c0,0.1,0.1,0.2,0.2,0.2h0c0.1,0,0.2-0.1,0.2-0.2c0,0,0-3.1,0-3.2
		c0-0.1,0-0.1,0.1-0.1C96.3,3,97.1,4,97.2,4.1c0,0,0.1,0.1,0.1,0.1s0.1,0,0.1-0.1c0,0,0.9-1.1,1.2-1.4c0.1-0.1,0.1-0.1,0.1,0.1
		c0,0.2,0,3.2,0,3.2c0,0.1,0.1,0.2,0.2,0.2h0c0.1,0,0.2-0.1,0.2-0.2V2C99.1,2,99,1.9,98.9,1.9z"/>
	<path class="st1" d="M103.3,1.8c-1.2,0-2.2,1-2.2,2.2c0,1.2,1,2.2,2.2,2.2c1.2,0,2.2-1,2.2-2.2C105.4,2.8,104.5,1.8,103.3,1.8z
		 M103.3,5.9c-1,0-1.8-0.8-1.8-1.9c0-1,0.8-1.9,1.8-1.9c1,0,1.8,0.8,1.8,1.9C105,5,104.3,5.9,103.3,5.9z"/>
	<path class="st1" d="M109.5,1.8c-1.2,0-2.2,1-2.2,2.2c0,1.2,1,2.2,2.2,2.2c0.6,0,1-0.2,1.4-0.5c0,0,0.1-0.1,0.1-0.1
		c0,0,0-0.2,0-0.4c0-0.1,0-0.1-0.1,0c-0.3,0.4-0.8,0.7-1.4,0.7c-1,0-1.8-0.8-1.8-1.9s0.8-1.9,1.8-1.9c0.6,0,1.1,0.3,1.4,0.7
		c0,0,0.1,0,0.1,0c0-0.1,0-0.3,0-0.4c0-0.1,0-0.1-0.1-0.1C110.5,2,110,1.8,109.5,1.8z"/>
	<path class="st1" d="M114,3.7c-0.1-0.1-0.1-0.2,0.1-0.3c0.1-0.1,1-1.3,1-1.3c0.1-0.1,0-0.2,0-0.3l0,0c-0.1-0.1-0.2,0-0.3,0
		c0,0-1.3,1.7-1.4,1.8c-0.1,0.1-0.1,0.1-0.1-0.1c0-0.1,0-1.7,0-1.7c0-0.1-0.1-0.2-0.2-0.2h0c-0.1,0-0.2,0.1-0.2,0.2V6
		c0,0.1,0.1,0.2,0.2,0.2h0c0.1,0,0.2-0.1,0.2-0.2c0,0,0-1.1,0-1.2c0-0.2,0-0.3,0.1-0.3c0-0.1,0.2-0.2,0.3-0.4c0-0.1,0.1-0.1,0.1,0
		c0,0.1,1.3,2,1.3,2c0.1,0.1,0.2,0.1,0.3,0.1l0,0c0.1-0.1,0.1-0.2,0.1-0.3C115.4,5.9,114.1,3.8,114,3.7z"/>
	<path class="st1" d="M119.4,3.8c-0.1,0-0.1-0.1,0-0.1c0.3-0.2,0.5-0.4,0.5-0.8c0-0.8-0.6-1.1-1.4-1.1h-1c-0.1,0-0.2,0.1-0.2,0.2V6
		c0,0.1,0.1,0.2,0.2,0.2h1.2c0.8,0,1.5-0.5,1.5-1.2C120.1,4.4,119.7,4.1,119.4,3.8z M117.6,2.4c0-0.1,0-0.1,0.1-0.1
		c0.1,0,0.7,0,0.7,0c0.6,0,1,0.1,1,0.7c0,0.5-0.4,0.6-1,0.6c0,0-0.6,0-0.7,0c-0.1,0-0.1,0-0.1-0.1C117.6,3.2,117.6,2.4,117.6,2.4z
		 M118.6,5.8c0,0-0.7,0-0.8,0c-0.1,0-0.1,0-0.1-0.1c0-0.1,0-1.2,0-1.5c0-0.1,0-0.1,0.1-0.1c0.1,0,0.8,0,0.8,0c0.6,0,1.1,0.4,1.1,0.9
		C119.7,5.5,119.2,5.8,118.6,5.8z"/>
	<path class="st1" d="M125.3,1.9L125.3,1.9c-0.1,0-0.2,0.1-0.2,0.2V6c0,0.1,0.1,0.2,0.2,0.2h0c0.1,0,0.2-0.1,0.2-0.2V2
		C125.5,2,125.4,1.9,125.3,1.9z"/>
	<path class="st1" d="M123.3,3.5h-0.8c-0.1,0-0.1,0-0.1-0.1V2c0-0.1-0.1-0.2-0.2-0.2h0C122.1,1.9,122,2,122,2V6
		c0,0.1,0.1,0.2,0.2,0.2h1.1c0.8,0,1.5-0.5,1.5-1.3S124.1,3.5,123.3,3.5z M123.3,5.8h-0.8c-0.1,0-0.1,0-0.1-0.1V3.9
		c0-0.1,0-0.1,0.1-0.1h0.8c0.6,0,1.1,0.3,1.1,0.9C124.4,5.4,123.9,5.8,123.3,5.8z"/>
</g>
</svg>
